{
  "type": "service_account",
  "project_id": "datapipelineproduction",
  "private_key_id": "8521e6e33aff73b9e03fee675d8b577a9bfa0500",
  "private_key": "-----BEGIN PRIVATE KEY-----\nMIIEvgIBADANBgkqhkiG9w0BAQEFAASCBKgwggSkAgEAAoIBAQDNoVKoI774QaWb\nxSIaxHh/J4Zwo3GRvPzp8WeeSEkItg5uo/FhJXtavcSpWuLpmOSVvs2eDj+wsq10\nQgiba7EbDxzASU2PqPvl9ERfJfzhylmuzOy46B33L0AukHMr+lyA3m/igOjOT0V3\nmU2AJLS/8LnR9KiPHWG79lRUeA6bcS02mUIdpq2CeyVVLVPe4dv4+Cz/f4yXo6YJ\nu6pjApvVwk4RZvbfqE37Ukdna2f+YXdWIW67UE20hmlngxuN9jS1UuQjdmGj8Kfc\neGGwDZNOePjQWVE5ojaqd2usvNckfcSy3oJppyonk2S3ALezvwaWF+53E04wpz8D\naBVS0ebzAgMBAAECggEAM1RzZSxzJdaBSBaYElV7/MW5jhGGrooeGincI0tJC+ci\nSCUdgpIQLlETr/DTlttHKEg2XJ+S74FSwiQfsOhbj/UgSLGjrlpQ8xCcJqI9c4GH\nDJbz+p5aqJL/cwA098Pp5nNgO4rRUnrATQAUNAo1onotcIchsoPzmy980o8bmlpd\n1r4QBXQUFc9FGcPhPQIEpEpHvkm0MYKthg+aofGmkDgKKVP5T+nCi0eoe/030Jqy\nYF1ObmjiIep883SYA2MSABw/Rf0FWACwlk1/n++JwQKhA3OfrwjPnPL8cMRMRSpf\n1DUfvADOEDWR/ZmjGSjNJNsggNci7jC2loIrRnLlGQKBgQD0jTUUzlYM6wMl5oRN\n/a/XHPCL87cOVUFqm+g5OL0hMyLgRGSu4no0CjBQ7AC6rGapJ560Cxa/VTKQ5ahv\nhmOlVuIZcaWGhGmvKVj/99qD1lNC6Dd9fsA5mh/dqNICHYQxtlQ8tr2Mv2F/Z7nc\nSV4o9wu0VRY2tbFe3guAO21fCQKBgQDXQardUKC7GhCSMrQmH/0H+f1pAA43BkG6\n2aY1ExN3de3oUnDRvl3EXDYlJrFvMOgZGPG+AKET1Th+kaaKMrK8Itr90HFnQROu\nNKKeP6JBRwVfbrTLcxSF0aco7jWRfURHm1tB7vZyDYqofU/4HC1Urf7dlLBxDfGR\nYlLkPzkZGwKBgQCgMYed83OmzqOnRhNQy2dOMCTaaHF3MB3D6hD6utIZV1f3NJYH\ngU+vmyT/PTlVDu3IzK1HHyRtfS+8ftQRCiVn/zvokuts7HwWQ62LLx6y0ciEwXzn\n9gmRMgbBun6m6BLaRad0hfgwpIUHYjj7tgu6JepC3KHKgMaJcEZ0X3lLkQKBgQCR\nuhNC4WLvSCYP0+PCK8XRsJyuiSsWdVXqeY7cP53eMihuL+HRHV+9n+/IFvnonOOE\nmi6Owz5JfwBQL6rfxJLca3x2eLdNf/Ei7t9o4wulxb8NbJVZZv9t2RGh1CLP7E5d\na//ME0sky6YjizKoder6eREiUZdh8l6oXjhf7a1qIQKBgAK06gBMm+8qBq2Gb7Ue\nr2ddrOtiQe0yDnRekRdhtvvXbLWrjxyBz0pTfykHZzV9kiRRnoLeTvsvWf6ty5xc\nAoIUS0QknEtUdtIHIGkc52TgrzT/2ds2UF7+4aygDgD9YwXVZ7kT9PT4B48EQfhp\nuEC2hzpBorGuaIU0IxY0NMFo\n-----END PRIVATE KEY-----\n",
  "client_email": "462171070671-compute@developer.gserviceaccount.com",
  "client_id": "100514718544661117145",
  "auth_uri": "https://accounts.google.com/o/oauth2/auth",
  "token_uri": "https://accounts.google.com/o/oauth2/token",
  "auth_provider_x509_cert_url": "https://www.googleapis.com/oauth2/v1/certs",
  "client_x509_cert_url": "https://www.googleapis.com/robot/v1/metadata/x509/462171070671-compute%40developer.gserviceaccount.com"
}
