{
  "type": "service_account",
  "project_id": "purplleproduction",
  "private_key_id": "0beb1b219e823753fc8e56943c594ceecf689135",
  "private_key": "-----BEGIN PRIVATE KEY-----\nMIIEvAIBADANBgkqhkiG9w0BAQEFAASCBKYwggSiAgEAAoIBAQCi0VXmBdfK63QQ\npJ86fmGB/FQYgfEgiIx5862S3Th2up6AazrKZweP4UGYbQHuQN0vNOrLKkPSNtfI\nyVyPGyq7lgq6zQYNQ8vRZRNG/kCMIkqCHFwSIPaDaXBsEycKl8o0jhHWtS5heyXc\n+6FUAOh6MNCk+YT+NdAucCog1H67z8JdJgZYBbT1odill00ODs67o+XX9h9XzlGM\nCB+BpBXbG713bVWjPCIrHkNnruaO5ij39afpkpBnt6Bi0XUvtZlocxEBC117jA1n\nxNsYtXG1hove8vhNpgSMtG69rRC8QoktZNprzrC1pJnI3y2prCFkw3+FieO66LxX\nZkvL8vd1AgMBAAECggEARg2GhWUvLx42PnDuF4dH4dsUvcSu4B4QPupS3LU09ZSe\n3McGMQ66SLQU+oWwRnf/ErAUc5x4OMqi9j95BROdw78vV6cd+vgYCjyQWkPLtt+M\nKkYUcTJgjjMADWgCLMMZW5pi33vt/EA1jspvY8rOO8CkDM9U4uF5dHmLDrwO2TQ+\nyApL3zvShACeo63hz3u2xZzqgabu9rRqTuKmnJ9AO7fTnYEYe639vCnmizswS1XD\nISmbf9yCsIDIiqNitySsWs3yOViARe5u1ep1CbJwLWEVx+gybCaXWI43lPqrYgWZ\nZREL5s1X9yliUGm8+/a9vTxojfFk4XWgnv2sI/browKBgQDgU4bNgLdJ06nHVrqe\nWx60bZ+h8HjKpU8tHQAg+KPJvzteBs9ukQSXGG6t+6uSic42wN5+S3qmDMGGNuJx\nyGVZeyBqp8SgfHG60svPECuIZw4v8oKjOP0V2k0DBM7bCrRiIVzby0X+15jadxhs\nU9mt5GDf9HAjJgGbmV31j8mbZwKBgQC5zob4AR8hEuWeP90XT5aR1WFRSStMUh8d\nk5QRHfVmRREHGG/WORDCYmDmdCeTPXMl0w2o/Td2wSzrc+XG5JopD+7gu2Jw8skY\ntLELFndBaeBxFh2FfYd6HCKlwbey2jlZGNZiO3BoEfSVPIW70ECgFnmV5jJjpcxn\nVpAp86qowwKBgCmVslakNtYbw8xtOnkioSWHcOE/R9UhIfVV+/EgxpQevC2pC4kO\nnxA3ekUMc3jdzPl/dX9qFJl1oeZ0hDPdl1QoLBE5eozZpOeiLh/7emZ13D5tMWR6\nqwgDCOW3XXVjnZ7XWnRwUVB1vSM6kq96N88xl/fMQ4FwiTnEC5P7DL+fAoGABxUK\nK/XO+/G+ctO4V6Ue9hwOA40oa1ZN/VCcujJMIkPLrFuQF7hBHUemreILiB81fmGX\nCbPtI0elsKvQPE6GWb5Tupkp3WhDpf9tKCEJFqM0fNr88ROh0FO2Nl8140lSGkVK\nFqBxXmYgzndqGYiMjg2NQNtvXED7k4zHHfI9tQUCgYBdcGiDdwTULLOQqWl5/Unx\nZ8jraqlbwDDmHm090/st23zNuSsY+hu8K7SXhZMfQlOgluSGxcxyBOnas/4PkqsP\nptL455TIKAN8WWjo/N/kwXvTql1DeHI8wwjKcZ9qiCD1WL2PcgIV0WIKv2kLsfOO\nUfbbusoI/Qz3QjUzUa5QDw==\n-----END PRIVATEKEY-----\n",
  "client_email": "clould-storage@purplleproduction.iam.gserviceaccount.com",
  "client_id": "109131431491997022124",
  "auth_uri": "https://accounts.google.com/o/oauth2/auth",
  "token_uri": "https://accounts.google.com/o/oauth2/token",
  "auth_provider_x509_cert_url": "https://www.googleapis.com/oauth2/v1/certs",
  "client_x509_cert_url": "https://www.googleapis.com/robot/v1/metadata/x509/clould-storage%40purplleproduction.iam.gserviceaccount.com"
}